{
  "comments": [
    {
      "name": "ssss",
      "email": "55555555555555@gmail.com",
      "body": "dcccccccccccccccsds",
      "postId": 5,
      "id": 5
    },
    {
      "name": "ssss",
      "email": "666666666@gmail.com",
      "body": "dcccccccccccccccsds",
      "postId": 6,
      "id": 6
    },
    {
      "name": "sdd",
      "email": "sddsds@ghdhg",
      "body": "ffd",
      "postId": 7,
      "id": 7
    },
    {
      "name": "sdd",
      "email": "sddsds@ghdhg",
      "body": "ffd",
      "postId": 7,
      "id": 8
    },
    {
      "name": "mahdueh",
      "email": "mahdiehh@gmail.com",
      "body": "dsdsd",
      "postId": 7,
      "id": 9
    },
    {
      "name": "mahdueh",
      "email": "mahdiehh@gmail.com",
      "body": "dsdsd",
      "postId": 7,
      "id": 10
    },
    {
      "name": "mahdueh",
      "email": "mahdiehh@gmail.com",
      "body": "dsdsd",
      "postId": 7,
      "id": 11
    },
    {
      "name": "sddssd",
      "email": "mahdiehh@gmail.com",
      "body": "dsdsd",
      "postId": 7,
      "id": 12
    }
  ]
}