{
  "contacts": [
    {
      "name": "mahdieh",
      "email": "sdsd@dsf",
      "id": 1
    },
    {
      "name": "fati",
      "email": "dsfsd@dsfsdf",
      "id": 2
    },
    {
      "name": "masoomehsdsdsdsd",
      "email": "MASOOMEHddd@gmail.com",
      "id": 3
    }
  ]
}